{
  "variables": {
    "aws_access_key": "",
    "aws_secret_key": ""
  },
  "builders": [{
    "type": "amazon-ebs",
    "access_key": "{{user `aws_access_key`}}",
    "secret_key": "{{user `aws_secret_key`}}",
    "region": "ap-southeast-2",
    "source_ami_filter": {
      "filters": {
      "virtualization-type": "hvm",
      "name": "*ubuntu-xenial-16.04-amd64-server-*",
      "root-device-type": "ebs"
      },
      "owners": ["099720109477"],
      "most_recent": true
    },
    "instance_type": "t2.micro",
    "ssh_username": "ubuntu",
    "ami_name": "packer-example {{timestamp}}",
    "tags": {
    "OS_Version": "Ubuntu",
    "Release": "Latest"
    }
  }],
  "provisioners": [
  {
    "type": "shell",
    "inline": [
      "sleep 30",
      "sudo apt-get update",
      "sudo apt-get install -y ansible"
    ]
  },
 {
    "type": "ansible-local",
    "playbook_file": "docker.yml"
  }
  ]

}
